{
  "title": "Wrapper Pad",
  "favicon": "favicon.ico",
  "ip": "0.0.0.0",
  "port" : 9001,
  "showSettingsInAdminPage" : true,
  "dbType" : "mysql",
  "dbSettings" : {
    "user"    : "root",
    "host"    : "pad_etherpad_db",
    "port"    : "3306",
    "password": "changeme",
    "database": "etherpad",
    "charset" : "utf8mb4"
  },

  "defaultPadText" : "",

  "padOptions": {
    "noColors": false,
    "showControls": true,
    "showChat": true,
    "showLineNumbers": true,
    "useMonospaceFont": false,
    "userName": false,
    "userColor": false,
    "rtl": false,
    "alwaysShowChat": false,
    "chatAndUsers": false,
    "lang": "en-gb"
  },

  "requireSession" : true,
  "editOnly" : true,
  "sessionNoPassword" : false,
  "minify" : true,
  "maxAge" : 21600,
  "abiword" : null,
  "soffice" : null,
  "tidyHtml" : null,
  "allowUnknownFileEnds" : true,
  "requireAuthentication" : false,
  "requireAuthorization" : false,
  "trustProxy" : true,
  "disableIPlogging" : true,
  "automaticReconnectionTimeout" : 0,
  "scrollWhenFocusLineIsOutOfViewport": {
    "percentage": {
      "editionAboveViewport": 0,
      "editionBelowViewport": 0
    },
    "duration": 0,
    "scrollWhenCaretIsInTheLastLineOfViewport": false,
    "percentageToScrollWhenUserPressesArrowUp": 0
  },

  "socketTransportProtocols" : ["xhr-polling", "jsonp-polling", "htmlfile"],
  "loadTest": false,

  "toolbar": {
    "left": [
      ["bold", "italic", "underline", "strikethrough"],
      ["orderedlist", "unorderedlist", "indent", "outdent"],
      ["undo", "redo"],
      ["clearauthorship"]
    ],
    "right": [
      ["importexport", "timeslider", "savedrevision"],
      ["settings"],
      ["showusers"]
    ],
    "timeslider": [
      ["timeslider_export", "timeslider_returnToPad"]
    ]
  },
  "loglevel": "INFO"
}
